n-grams
…
reviews.bigrams = reviews %>% 
  unnest_tokens(bigram, lem, token = "ngrams", n = 2)

reviews.bigrams %>% 
  dplyr::count(bigram, sort = TRUE)

## # A tibble: 161,919 x 2
##    bigram                n
##    <chr>             <int>
##  1              2505
##  2              1683
##  3           1582
##  4               1428
##  5    1158
##  6               993
##  7            753
##  8               714
##  9                670
## 10     650
## # ... with 161,909 more rows

reviews.bifiltered = reviews.bigrams %>% 
  separate(bigram, c("word1", "word2"), sep = " ") %>% 
  filter(!word1 %in% stopwords::stopwords("ru")) %>% 
  filter(!word2 %in% stopwords::stopwords("ru")) 

reviews.bifiltered %>% 
  dplyr::select(word1, word2) %>% 
  dplyr::count(word1, word2, sort = TRUE)

## # A tibble: 95,553 x 3
##    word1      word2            n
##    <chr>      <chr>        <int>
##  1           650
##  2                 602
##  3                 533
##  4            513
##  5               488
##  6               465
##  7           425
##  8               424
##  9                 422
## 10        395
## # ... with 95,543 more rows

reviews.bifiltered %>% 
  filter(word2 == "") %>% 
  count(word1, word2, sort=TRUE) %>%
  dplyr::select(word1, word2, n)

## # A tibble: 109 x 3
##    word1                 word2     n
##    <chr>                 <chr> <int>
##  1                     422
##  2              106
##  3                   60
##  4               22
##  5                        21
##  6                     13
##  7                       11
##  8                      10
##  9                       8
## 10       7
## # ... with 99 more rows

reviews.bifiltered %>% 
  filter(word2 == "") %>% 
  dplyr::count(rating, word1, sort=TRUE) %>% 
  filter(rating>3)

## # A tibble: 125 x 3
##    rating word1            n
##     <int> <chr>        <int>
##  1      5           282
##  2      4           124
##  3      5     68
##  4      5         35
##  5      4     32
##  6      4         23
##  7      5     17
##  8      5              16
##  9      5             8
## 10      5            8
## # ... with 115 more rows
…
## Joining, by = "words"

word_pmi <- reviews.tidy %>%
  group_by(words) %>%
  filter(n() >= 50)

pmi_counts = pairwise_pmi(word_pmi, words, id, sort = T)
pmi_counts$pmi = ifelse(pmi_counts$pmi < 0, 0, pmi_counts$pmi)

pmi_counts %>%
  filter(item1 == "")

## # A tibble: 939 x 3
##    item1 item2           pmi
##    <chr> <chr>         <dbl>
##  1        1.47 
##  2           0.914
##  3         0.913
##  4    0.900
##  5       0.895
##  6           0.687
##  7      0.685
##  8       0.652
##  9         0.632
## 10   0.632
## # ... with 929 more rows
…
