Самостоятельная работа. Lab 5
…
questions = dplyr::select(questions, Id, OwnerUserId, Score:Body)
answers = dplyr::select(answers, ParentId, OwnerUserId, answer.score = `Score`, accepted = `IsAcceptedAnswer`, answer.body = `Body`)

А теперь нам их надо соединить. Благо, в пакете dplyr для этого есть функция join. Давайте при ее помощи сделаем один датасет, в котором будут вопросы и теги для них.

?left_join

qtags = left_join(questions, tags, by=NULL)

## Joining, by = "Id"

qtags

## # A tibble: 1,761 x 6
##        Id OwnerUserId Score Title  Body                              Tag  
##     <int>       <int> <int> <chr>  <chr>                             <chr>
##  1  77434       14008   171 How t… "<p>Suppose I have a vector that… vect…
##  2  79709          NA     3 Worse… "<p>I have a function inside a l… memo…
##  3  79709          NA     3 Worse… "<p>I have a function inside a l… func…
##  4  79709          NA     3 Worse… "<p>I have a function inside a l… glob…
##  5  79709          NA     3 Worse… "<p>I have a function inside a l… side…
##  6  95007       15842    56 Expla… "<p>I've been mystified by the R… math 
##  7  95007       15842    56 Expla… "<p>I've been mystified by the R… stat…
##  8 103312          NA     4 How t… "<p>How can I test for the <code… file 
##  9 103312          NA     4 How t… "<p>How can I test for the <code… file…
## 10 103312          NA     4 How t… "<p>How can I test for the <code… eof  
## # ... with 1,751 more rows
…
