Lab 05. Recap
…
ggplot(plot_trigram, aes(trigram, tf_idf)) +
  geom_bar(stat = "identity", show.legend = FALSE) +
  labs(x = NULL, y = "tf-idf") +
  facet_wrap(~stars, scales = "free") +
  coord_flip()

  ,     .     ?           ?

reviews.bigrams = reviews %>% 
  unnest_tokens(bigram, lem, token = "ngrams", n = 2)

reviews.bigrams %>% 
  dplyr::count(bigram, sort = TRUE)

## # A tibble: 161,919 x 2
##    bigram                n
##    <chr>             <int>
##  1              2505
##  2              1683
##  3           1582
##  4               1428
##  5    1158
##  6               993
##  7            753
##  8               714
##  9                670
## 10     650
## #  with 161,909 more rows
…
